HAARS-MAX.png
HAARS-ORI.png
HAARS2016-02-29 11:10:26.jpg
HAARS2016-02-29 11:10:31.jpg
HAARS2016-03-28 20:20:32.jpg
HAARS2016-03-28 20:20:34.jpg
HAARS2016-03-28 20:20:43.jpg
HAARS2016-03-28 20:20:45.jpg
HAARS2016-03-28 20:20:52.jpg
HAARS2016-03-28 20:20:57.jpg
HAARS2016-03-28 20:21:02.jpg
HAARS2016-03-28 20:21:03.jpg
HAARS2016-03-28 20:21:05.jpg
HAARS2016-05-04 13:41:04.jpg
HAARS2016-05-04 13:41:14.jpg
HAARS2016-05-04 13:41:15.jpg
HAARS2016-05-04 13:41:31.jpg
HAARS2016-05-04 13:41:35.jpg
HAARS2016-05-04 13:41:57.jpg
HAARS2016-05-04 13:42:08.jpg
HAARS2016-05-04 13:42:09.jpg
ccny.png
ccny2.png
ccny_logo1.png
images.txt
juan.png
michael.png
pedestrian.jpg
rosario.png
